<?xml version="1.0" encoding="utf-8"?>
<!-- Generator: Adobe Illustrator 16.0.0, SVG Export Plug-In . SVG Version: 6.00 Build 0)  -->
<!DOCTYPE svg PUBLIC "-//W3C//DTD SVG 1.1//EN" "http://www.w3.org/Graphics/SVG/1.1/DTD/svg11.dtd">
<svg version="1.1" id="Layer_1" xmlns="http://www.w3.org/2000/svg" xmlns:xlink="http://www.w3.org/1999/xlink" x="0px" y="0px"
	 width="923px" height="1000px" viewBox="0 0 923 1000" enable-background="new 0 0 923 1000" xml:space="preserve">
<g>
	<rect fill="#002BFF" width="923" height="1000.276"/>
	<g>
		<defs>
			<rect id="SVGID_1_" width="923" height="1000.276"/>
		</defs>
		<clipPath id="SVGID_2_">
			<use xlink:href="#SVGID_1_"  overflow="visible"/>
		</clipPath>
		<path clip-path="url(#SVGID_2_)" fill="#FFFFFF" d="M367.538,641.062c0-4.086-1.108-5.236-5.15-5.253
			c-6-0.022-12.005-0.011-18.005-0.006c-5.133,0-6.014,0.87-6.014,5.961v59.69v3.356c-1.092-1.004-1.603-1.459-2.091-1.936
			c-23.357-22.479-46.726-44.946-70.039-67.471c-2.346-2.262-4.996-1.526-7.442-1.011c-2.208,0.473-2.208,2.745-2.203,4.693
			c0.081,40.305,0.157,80.615,0.236,120.925c0.011,3.582,1.212,4.788,4.765,4.8c6.18,0.017,12.351,0.011,18.53,0.006
			c4.673,0,5.593-0.904,5.593-5.507c0-21.188,0-42.37,0-63.553v-3.199c0.999,0.942,1.614,1.481,2.195,2.065
			c22.989,23.096,45.985,46.198,68.969,69.301c0.544,0.544,1.041,1.173,1.656,1.616c2.234,1.6,4.723,1.543,7.097,0.589
			c2.012-0.803,1.908-2.812,1.908-4.647C367.538,721.341,367.538,681.204,367.538,641.062"/>
		<path clip-path="url(#SVGID_2_)" fill="#FFFFFF" d="M491.115,540.566c-15.266-0.006-30.53,0-45.794,0h-2.868v-24.842h3.022
			c12.516,0,25.042,0.005,37.558-0.006c3.443-0.005,4.622-1.184,4.639-4.624c0.022-5.653,0.006-11.316,0.006-16.974
			c-0.006-4.451-1.016-5.495-5.408-5.5c-12.264-0.006-24.53,0-36.789,0h-3.104v-22.827h2.908c15.524,0,31.041,0.006,46.565-0.005
			c3.741-0.005,4.892-1.162,4.909-4.928c0.022-5.573,0.017-11.147,0-16.72c-0.006-4.389-1.069-5.455-5.473-5.455
			c-24.264-0.012-48.542-0.012-72.808,0c-3.912,0-4.992,1.105-4.992,5.062c-0.006,39.625-0.006,79.246,0,118.866
			c0,3.985,1.063,5.079,4.958,5.079c24.438,0.006,48.875,0.006,73.319,0c3.864,0,4.989-1.162,4.995-5.119
			c0.017-5.488,0.017-10.973,0.006-16.461C496.753,541.565,495.749,540.566,491.115,540.566"/>
		<path clip-path="url(#SVGID_2_)" fill="#FFFFFF" d="M441.205,321.064c4.608-10.159,9.126-20.11,13.827-30.477
			c4.805,10.429,9.356,20.33,14.023,30.477H441.205z M515.823,358.434c-11.506-24.741-23.018-49.481-34.513-74.223
			c-7.14-15.356-14.279-30.712-21.371-46.092c-1.075-2.334-2.495-3.688-5.287-3.536c-2.557,0.129-3.488,1.785-4.381,3.705
			c-7.773,16.754-15.563,33.507-23.352,50.262c-10.992,23.663-21.993,47.31-32.972,70.973c-1.827,3.929-0.564,5.854,3.794,5.882
			c6.093,0.033,12.177-0.006,18.264,0.011c3.628,0.012,6.179-1.509,7.645-4.928c1.754-4.086,3.707-8.087,5.461-12.174
			c0.609-1.431,1.327-2.077,3-2.065c15.351,0.073,30.702,0.062,46.047,0.011c1.479,0,2.307,0.382,2.921,1.819
			c1.81,4.243,3.845,8.402,5.683,12.634c1.425,3.289,3.74,4.911,7.403,4.731c2.907-0.146,5.834-0.033,8.742-0.033v-0.006
			c3.522,0,7.041,0.101,10.552-0.028c3.196-0.124,4.397-2.149,3.208-5.074C516.415,359.668,516.109,359.057,515.823,358.434"/>
		<path clip-path="url(#SVGID_2_)" fill="#FFFFFF" d="M652.972,307.97c-5.748-7.953-13.616-13.15-22.293-17.276
			c-5.405-2.565-10.967-4.805-16.345-7.426c-3.929-1.919-7.656-4.254-10.086-8.099c-3.463-5.489-1.717-11.394,4.17-14.105
			c3.789-1.746,7.689-1.369,11.562-0.381c6.892,1.763,12.959,5.282,18.847,9.138c3.261,2.138,5.377,1.975,7.667-1.218
			c3.289-4.585,6.382-9.328,9.384-14.11c1.549-2.458,0.932-4.827-1.481-6.455c-2.767-1.863-5.557-3.732-8.492-5.298
			c-15.138-8.038-31.01-10.855-47.579-5.372c-13.17,4.355-21.895,13.353-24.592,27.171c-2.705,13.858,2.288,25.156,12.75,34.344
			c7.532,6.606,16.445,10.669,25.515,14.542c4.76,2.032,9.239,4.574,12.545,8.688c2.913,3.626,4.136,7.774,2.419,12.258
			c-1.701,4.429-5.343,6.87-9.923,6.954c-3.851,0.067-7.987-0.23-11.551-1.561c-5.478-2.043-10.625-5.018-15.828-7.768
			c-3.098-1.65-5.753-1.577-7.218,0.915c-2.995,5.085-5.824,10.271-8.736,15.407c-0.884,1.565-0.757,3.014,0.615,4.142
			c2.582,2.116,5.062,4.411,7.891,6.129c10.154,6.168,21.379,8.464,37.404,8.644c7.874,0.011,18.842-3.227,28.08-11.495
			C661.347,343.526,663.664,322.799,652.972,307.97"/>
		<path clip-path="url(#SVGID_2_)" fill="#FFFFFF" d="M266.009,365.411c6.258,0.022,12.519,0.011,18.783,0.005
			c4.201-0.005,5.332-1.133,5.337-5.337c0.006-13.207,0-26.414,0-39.62v-3.362h3.236c12.519,0,25.044,0.011,37.561-0.011
			c3.41,0,4.633-1.235,4.65-4.63c0.017-5.664,0.006-11.321,0-16.984c0-4.406-0.976-5.377-5.466-5.377
			c-12.259-0.006-24.522-0.006-36.789-0.006h-2.972v-26.576h3.017c15.354,0,30.705,0,46.05,0c4.128,0,5.237-1.078,5.253-5.108
			c0.011-5.579,0.017-11.153-0.006-16.726c-0.017-4.115-1.103-5.265-5.138-5.265c-24.443-0.018-48.881-0.018-73.319-0.006
			c-3.646,0-4.819,1.156-4.819,4.726c-0.011,39.878-0.011,79.757,0,119.629C261.387,364.215,262.577,365.393,266.009,365.411"/>
		<path clip-path="url(#SVGID_2_)" fill="#FFFFFF" d="M264.709,465.788c8.145,0.011,16.283,0,24.845,0v3.289
			c0,31.123-0.005,62.245,0,93.367c0,4.081,1.146,5.236,5.144,5.254c5.916,0.006,11.829,0,17.75,0c5.476,0,6.258-0.78,6.264-6.213
			V469.15v-3.362c8.545,0,16.678,0.011,24.811,0c3.845,0,4.984-1.066,5.012-4.815c0.039-5.742,0.039-11.489,0-17.231
			c-0.022-3.912-1.151-5.046-5.08-5.046c-26.318-0.017-52.642-0.017-78.959,0c-3.598,0-4.776,1.229-4.788,4.805
			c-0.022,5.742-0.017,11.489-0.005,17.231C259.714,464.677,260.806,465.788,264.709,465.788"/>
	</g>
</g>
</svg>
